%YAML 1.1
%TAG !u! tag:unity3d.com,2011:
--- !u!114 &11400000
MonoBehaviour:
  m_ObjectHideFlags: 0
  m_CorrespondingSourceObject: {fileID: 0}
  m_PrefabInstance: {fileID: 0}
  m_PrefabAsset: {fileID: 0}
  m_GameObject: {fileID: 0}
  m_Enabled: 1
  m_EditorHideFlags: 0
  m_Script: {fileID: 11500000, guid: dc38003c0e0db6641a4762d4f392de52, type: 3}
  m_Name: New Prefab Palette
  m_EditorClassIdentifier: 
  prefabs:
  - gameObject: {fileID: 7402279209237214822, guid: d7f54588d5547e244ad50e63cb2c0417,
      type: 3}
    settings:
      m_Strength: 47.97527
      m_RotationRangeMin: {x: 0, y: 0, z: 0}
      m_RotationRangeMax: {x: 0, y: 48.169014, z: 0}
      m_ScaleRangeMin: {x: 1, y: 1, z: 1}
      m_ScaleRangeMax: {x: 1, y: 1, z: 1}
      m_UniformScale: {x: 1, y: 1}
      m_UniformBool: 1
      m_XRotationBool: 0
      m_YRotationBool: 1
      m_ZRotationBool: 0
      m_XScaleBool: 0
      m_YScaleBool: 0
      m_ZScaleBool: 0
    name: Headstone1
  - gameObject: {fileID: 9026004977107251640, guid: f13fddd8c30e099458f9860cf6bc1187,
      type: 3}
    settings:
      m_Strength: 50
      m_RotationRangeMin: {x: 0, y: 0, z: 0}
      m_RotationRangeMax: {x: 0, y: 0, z: 0}
      m_ScaleRangeMin: {x: 1, y: 1, z: 1}
      m_ScaleRangeMax: {x: 1, y: 1, z: 1}
      m_UniformScale: {x: 1, y: 1}
      m_UniformBool: 0
      m_XRotationBool: 0
      m_YRotationBool: 0
      m_ZRotationBool: 0
      m_XScaleBool: 0
      m_YScaleBool: 0
      m_ZScaleBool: 0
    name: HeadstoneCross
