%YAML 1.1
%TAG !u! tag:unity3d.com,2011:
--- !u!221 &22100000
AnimatorOverrideController:
  m_ObjectHideFlags: 0
  m_CorrespondingSourceObject: {fileID: 0}
  m_PrefabInstance: {fileID: 0}
  m_PrefabAsset: {fileID: 0}
  m_Name: New Animator Override Controller
  m_Controller: {fileID: 9100000, guid: ec0478d712ab9aa4b9a7fdae0db020df, type: 2}
  m_Clips:
  - m_OriginalClip: {fileID: -203655887218126122, guid: 18808633f78ea8046b2edf278f5fcb47,
      type: 3}
    m_OverrideClip: {fileID: -203655887218126122, guid: 18808633f78ea8046b2edf278f5fcb47,
      type: 3}
