%YAML 1.1
%TAG !u! tag:unity3d.com,2011:
--- !u!1 &8987056449735893763
GameObject:
  m_ObjectHideFlags: 0
  m_CorrespondingSourceObject: {fileID: 0}
  m_PrefabInstance: {fileID: 0}
  m_PrefabAsset: {fileID: 0}
  serializedVersion: 6
  m_Component:
  - component: {fileID: 8987056449735893760}
  - component: {fileID: 8987056449735893761}
  - component: {fileID: 8987056449735893762}
  m_Layer: 0
  m_Name: 'Bottle_PickUpItem '
  m_TagString: scareTag
  m_Icon: {fileID: 0}
  m_NavMeshLayer: 0
  m_StaticEditorFlags: 0
  m_IsActive: 1
--- !u!4 &8987056449735893760
Transform:
  m_ObjectHideFlags: 0
  m_CorrespondingSourceObject: {fileID: 0}
  m_PrefabInstance: {fileID: 0}
  m_PrefabAsset: {fileID: 0}
  m_GameObject: {fileID: 8987056449735893763}
  m_LocalRotation: {x: -0, y: -0, z: -0, w: 1}
  m_LocalPosition: {x: 0, y: 0, z: -1.31}
  m_LocalScale: {x: 1, y: 1, z: 1}
  m_ConstrainProportionsScale: 0
  m_Children:
  - {fileID: 3643798439426274503}
  m_Father: {fileID: 0}
  m_RootOrder: 0
  m_LocalEulerAnglesHint: {x: 0, y: 0, z: 0}
--- !u!54 &8987056449735893761
Rigidbody:
  m_ObjectHideFlags: 0
  m_CorrespondingSourceObject: {fileID: 0}
  m_PrefabInstance: {fileID: 0}
  m_PrefabAsset: {fileID: 0}
  m_GameObject: {fileID: 8987056449735893763}
  serializedVersion: 2
  m_Mass: 1
  m_Drag: 0
  m_AngularDrag: 0.05
  m_UseGravity: 1
  m_IsKinematic: 0
  m_Interpolate: 0
  m_Constraints: 0
  m_CollisionDetection: 0
--- !u!114 &8987056449735893762
MonoBehaviour:
  m_ObjectHideFlags: 0
  m_CorrespondingSourceObject: {fileID: 0}
  m_PrefabInstance: {fileID: 0}
  m_PrefabAsset: {fileID: 0}
  m_GameObject: {fileID: 8987056449735893763}
  m_Enabled: 1
  m_EditorHideFlags: 0
  m_Script: {fileID: 11500000, guid: 320b3198b964ab14b95a41593f63860f, type: 3}
  m_Name: 
  m_EditorClassIdentifier: 
  itemName: bottle
--- !u!1001 &4013893455455107744
PrefabInstance:
  m_ObjectHideFlags: 0
  serializedVersion: 2
  m_Modification:
    m_TransformParent: {fileID: 8987056449735893760}
    m_Modifications:
    - target: {fileID: 370818590947577447, guid: 8914765020c84834384e35a0a016e03b,
        type: 3}
      propertyPath: m_RootOrder
      value: 0
      objectReference: {fileID: 0}
    - target: {fileID: 370818590947577447, guid: 8914765020c84834384e35a0a016e03b,
        type: 3}
      propertyPath: m_LocalPosition.x
      value: 0
      objectReference: {fileID: 0}
    - target: {fileID: 370818590947577447, guid: 8914765020c84834384e35a0a016e03b,
        type: 3}
      propertyPath: m_LocalPosition.y
      value: 0
      objectReference: {fileID: 0}
    - target: {fileID: 370818590947577447, guid: 8914765020c84834384e35a0a016e03b,
        type: 3}
      propertyPath: m_LocalPosition.z
      value: 0
      objectReference: {fileID: 0}
    - target: {fileID: 370818590947577447, guid: 8914765020c84834384e35a0a016e03b,
        type: 3}
      propertyPath: m_LocalRotation.w
      value: 1
      objectReference: {fileID: 0}
    - target: {fileID: 370818590947577447, guid: 8914765020c84834384e35a0a016e03b,
        type: 3}
      propertyPath: m_LocalRotation.x
      value: 0
      objectReference: {fileID: 0}
    - target: {fileID: 370818590947577447, guid: 8914765020c84834384e35a0a016e03b,
        type: 3}
      propertyPath: m_LocalRotation.y
      value: 0
      objectReference: {fileID: 0}
    - target: {fileID: 370818590947577447, guid: 8914765020c84834384e35a0a016e03b,
        type: 3}
      propertyPath: m_LocalRotation.z
      value: 0
      objectReference: {fileID: 0}
    - target: {fileID: 370818590947577447, guid: 8914765020c84834384e35a0a016e03b,
        type: 3}
      propertyPath: m_LocalEulerAnglesHint.x
      value: 0
      objectReference: {fileID: 0}
    - target: {fileID: 370818590947577447, guid: 8914765020c84834384e35a0a016e03b,
        type: 3}
      propertyPath: m_LocalEulerAnglesHint.y
      value: 0
      objectReference: {fileID: 0}
    - target: {fileID: 370818590947577447, guid: 8914765020c84834384e35a0a016e03b,
        type: 3}
      propertyPath: m_LocalEulerAnglesHint.z
      value: 0
      objectReference: {fileID: 0}
    - target: {fileID: 8844268726868763608, guid: 8914765020c84834384e35a0a016e03b,
        type: 3}
      propertyPath: m_Name
      value: BottleParent
      objectReference: {fileID: 0}
    m_RemovedComponents: []
  m_SourcePrefab: {fileID: 100100000, guid: 8914765020c84834384e35a0a016e03b, type: 3}
--- !u!4 &3643798439426274503 stripped
Transform:
  m_CorrespondingSourceObject: {fileID: 370818590947577447, guid: 8914765020c84834384e35a0a016e03b,
    type: 3}
  m_PrefabInstance: {fileID: 4013893455455107744}
  m_PrefabAsset: {fileID: 0}
--- !u!1 &5550987087944178040 stripped
GameObject:
  m_CorrespondingSourceObject: {fileID: 8844268726868763608, guid: 8914765020c84834384e35a0a016e03b,
    type: 3}
  m_PrefabInstance: {fileID: 4013893455455107744}
  m_PrefabAsset: {fileID: 0}
--- !u!65 &6930604596662425931
BoxCollider:
  m_ObjectHideFlags: 0
  m_CorrespondingSourceObject: {fileID: 0}
  m_PrefabInstance: {fileID: 0}
  m_PrefabAsset: {fileID: 0}
  m_GameObject: {fileID: 5550987087944178040}
  m_Material: {fileID: 0}
  m_IsTrigger: 0
  m_Enabled: 1
  serializedVersion: 2
  m_Size: {x: 0.08, y: 0.8, z: 0.08}
  m_Center: {x: 0, y: 0.38, z: 0}
--- !u!136 &6817782675796928505
CapsuleCollider:
  m_ObjectHideFlags: 0
  m_CorrespondingSourceObject: {fileID: 0}
  m_PrefabInstance: {fileID: 0}
  m_PrefabAsset: {fileID: 0}
  m_GameObject: {fileID: 5550987087944178040}
  m_Material: {fileID: 0}
  m_IsTrigger: 0
  m_Enabled: 1
  m_Radius: 0.1
  m_Height: 0.54
  m_Direction: 1
  m_Center: {x: 0, y: 0.24, z: 0}
